%YAML 1.1
%TAG !u! tag:unity3d.com,2011:
--- !u!114 &11400000
MonoBehaviour:
  m_ObjectHideFlags: 0
  m_CorrespondingSourceObject: {fileID: 0}
  m_PrefabInstance: {fileID: 0}
  m_PrefabAsset: {fileID: 0}
  m_GameObject: {fileID: 0}
  m_Enabled: 1
  m_EditorHideFlags: 0
  m_Script: {fileID: 11500000, guid: 848409ee8ba454f42a5ddff137688a27, type: 3}
  m_Name: MarkerTrackLib
  m_EditorClassIdentifier: 
  m_GuidLow: 5203878889111344336
  m_GuidHigh: 3275502569023857810
  m_DataStore:
    m_Storage: []
  m_Images:
  - m_SerializedGuid:
      m_GuidLow: 5335982260471058778
      m_GuidHigh: 1923363499485851563
    m_SerializedTextureGuid:
      m_GuidLow: 13015671760184759124
      m_GuidHigh: 17840759012502005690
    m_Size: {x: 17.23, y: 34.46}
    m_SpecifySize: 1
    m_Name: pop_marker
    m_Texture: {fileID: 2800000, guid: 82e55354f481b4a0bae78727cc1b97f7, type: 3}
  - m_SerializedGuid:
      m_GuidLow: 5660174647713228671
      m_GuidHigh: 389513236708404113
    m_SerializedTextureGuid:
      m_GuidLow: 11824769371896637659
      m_GuidHigh: 387868562505103593
    m_Size: {x: 17.23, y: 28.716665}
    m_SpecifySize: 1
    m_Name: bmw_marker
    m_Texture: {fileID: 2800000, guid: ead168db0517a41ae978a80f67fc6105, type: 3}
  - m_SerializedGuid:
      m_GuidLow: 4897160789265180992
      m_GuidHigh: 7253151906015501496
    m_SerializedTextureGuid:
      m_GuidLow: 2603194626281643721
      m_GuidHigh: 837451483304744680
    m_Size: {x: 1.125, y: 1.125}
    m_SpecifySize: 1
    m_Name: banner
    m_Texture: {fileID: 2800000, guid: 64b91ec967b82420e8d600e3af399f0b, type: 3}
