%YAML 1.1
%TAG !u! tag:unity3d.com,2011:
--- !u!1045 &1
EditorBuildSettings:
  m_ObjectHideFlags: 0
  serializedVersion: 2
  m_Scenes:
  - enabled: 0
    path: Assets/Scenes/SplashScreen.unity
    guid: d3562dabb17604d46830945e4a1a3c64
  - enabled: 0
    path: Assets/bidu/scene/ar-duyminh.unity
    guid: 11b6adc8bf43148279ec6a3da83b6f6c
  - enabled: 1
    path: Assets/bidu/scene/ProjectSelection.unity
    guid: caa58e4fbc27e394ebc89e77316a2679
  m_configObjects:
    UnityEditor.XR.ARCore.ARCoreSettings: {fileID: 11400000, guid: 5a10dea55e8c5ae4dad43b169658689f, type: 2}
    UnityEditor.XR.ARKit.ARKitSettings: {fileID: 11400000, guid: af7d74bd5bc46f448ab9a4d365d40e8a, type: 2}
    com.unity.xr.management.loader_settings: {fileID: 11400000, guid: ce97d305cbc9f364a96b82f647a46623, type: 2}
